<?xml version="1.0" encoding="iso-8859-1"?>
<!-- Generator: Adobe Illustrator 18.0.0, SVG Export Plug-In . SVG Version: 6.00 Build 0)  -->
<!DOCTYPE svg PUBLIC "-//W3C//DTD SVG 1.1//EN" "http://www.w3.org/Graphics/SVG/1.1/DTD/svg11.dtd">
<svg version="1.1" id="Capa_1" xmlns="http://www.w3.org/2000/svg" xmlns:xlink="http://www.w3.org/1999/xlink" x="0px" y="0px"
	 viewBox="0 0 451.462 451.462" style="enable-background:new 0 0 451.462 451.462;" xml:space="preserve">
<path d="M450.065,48.171l-16.023-22.425c-2.408-3.37-7.093-4.15-10.463-1.742l-12.586,8.993l-2.316-3.242
	c-2.407-3.371-7.092-4.15-10.462-1.742s-4.15,7.092-1.742,10.462l2.316,3.241L126.168,236.506l-16.96-2.824
	c-4.087-0.68-7.949,2.081-8.63,6.166c-0.681,4.086,2.08,7.95,6.166,8.63l16.961,2.824l3.214,4.499L3.14,344.24
	c-1.618,1.157-2.711,2.909-3.038,4.871c-0.327,1.962,0.139,3.974,1.295,5.592l50.74,71.014c1.365,1.91,3.544,3.07,5.891,3.137
	c0.071,0.002,0.141,0.003,0.212,0.003c2.269,0,4.42-1.028,5.846-2.803l90.691-112.88c4.26,1.792,8.799,2.707,13.342,2.707
	c7.009,0,14.015-2.129,19.964-6.379c15.411-11.011,18.99-32.507,7.979-47.918c-0.694-0.971-1.433-1.897-2.211-2.78l60.58-43.285
	c8.228-5.879,11.725-15.951,9.665-25.254l184.225-131.63c1.618-1.157,2.711-2.909,3.038-4.871
	C451.688,51.801,451.221,49.79,450.065,48.171z M58.59,408.946l-40.628-56.861l117.676-84.08l9.577,13.404L145.319,301
	L58.59,408.946z M183.858,270.304c6.203,8.681,4.187,20.79-4.495,26.993c-5.611,4.009-12.888,4.653-19.054,1.938l-0.055-10.432
	l6.24,1.691c0.657,0.178,1.317,0.263,1.966,0.263c3.303,0,6.329-2.199,7.234-5.54c1.083-3.998-1.279-8.117-5.277-9.201l-0.478-0.129
	l11.574-8.27C182.365,268.435,183.157,269.321,183.858,270.304z M245.712,203.313l-91.266,65.211l-15.982-22.368l98.988-70.728
	l10.47,14.653C250.957,194.339,249.968,200.273,245.712,203.313z M256.96,176.928l-7.303-10.221l176.54-126.139l7.303,10.221
	L256.96,176.928z"/>
<g>
</g>
<g>
</g>
<g>
</g>
<g>
</g>
<g>
</g>
<g>
</g>
<g>
</g>
<g>
</g>
<g>
</g>
<g>
</g>
<g>
</g>
<g>
</g>
<g>
</g>
<g>
</g>
<g>
</g>
</svg>
